%YAML 1.1
%TAG !u! tag:unity3d.com,2011:
--- !u!1 &750149115167917204
GameObject:
  m_ObjectHideFlags: 0
  m_CorrespondingSourceObject: {fileID: 0}
  m_PrefabInstance: {fileID: 0}
  m_PrefabAsset: {fileID: 0}
  serializedVersion: 6
  m_Component:
  - component: {fileID: 5241615245026370787}
  m_Layer: 8
  m_Name: '[FINAL MANAGEMENT]'
  m_TagString: Untagged
  m_Icon: {fileID: 0}
  m_NavMeshLayer: 0
  m_StaticEditorFlags: 0
  m_IsActive: 1
--- !u!4 &5241615245026370787
Transform:
  m_ObjectHideFlags: 0
  m_CorrespondingSourceObject: {fileID: 0}
  m_PrefabInstance: {fileID: 0}
  m_PrefabAsset: {fileID: 0}
  m_GameObject: {fileID: 750149115167917204}
  m_LocalRotation: {x: 0, y: 0, z: 0, w: 1}
  m_LocalPosition: {x: 0, y: 0, z: 0}
  m_LocalScale: {x: 1, y: 1, z: 1}
  m_Children:
  - {fileID: 5883164999431739179}
  m_Father: {fileID: 0}
  m_RootOrder: 0
  m_LocalEulerAnglesHint: {x: 0, y: 0, z: 0}
--- !u!1001 &3207826784097908845
PrefabInstance:
  m_ObjectHideFlags: 0
  serializedVersion: 2
  m_Modification:
    m_TransformParent: {fileID: 5241615245026370787}
    m_Modifications:
    - target: {fileID: 9016573773909880640, guid: 4d217688d4360ba4a9576ee9e9e4a33d,
        type: 3}
      propertyPath: m_Name
      value: Application Manager
      objectReference: {fileID: 0}
    - target: {fileID: 9016573773909880646, guid: 4d217688d4360ba4a9576ee9e9e4a33d,
        type: 3}
      propertyPath: m_LocalPosition.x
      value: 0
      objectReference: {fileID: 0}
    - target: {fileID: 9016573773909880646, guid: 4d217688d4360ba4a9576ee9e9e4a33d,
        type: 3}
      propertyPath: m_LocalPosition.y
      value: 0
      objectReference: {fileID: 0}
    - target: {fileID: 9016573773909880646, guid: 4d217688d4360ba4a9576ee9e9e4a33d,
        type: 3}
      propertyPath: m_LocalPosition.z
      value: 0
      objectReference: {fileID: 0}
    - target: {fileID: 9016573773909880646, guid: 4d217688d4360ba4a9576ee9e9e4a33d,
        type: 3}
      propertyPath: m_LocalRotation.x
      value: 0
      objectReference: {fileID: 0}
    - target: {fileID: 9016573773909880646, guid: 4d217688d4360ba4a9576ee9e9e4a33d,
        type: 3}
      propertyPath: m_LocalRotation.y
      value: 0
      objectReference: {fileID: 0}
    - target: {fileID: 9016573773909880646, guid: 4d217688d4360ba4a9576ee9e9e4a33d,
        type: 3}
      propertyPath: m_LocalRotation.z
      value: 0
      objectReference: {fileID: 0}
    - target: {fileID: 9016573773909880646, guid: 4d217688d4360ba4a9576ee9e9e4a33d,
        type: 3}
      propertyPath: m_LocalRotation.w
      value: 1
      objectReference: {fileID: 0}
    - target: {fileID: 9016573773909880646, guid: 4d217688d4360ba4a9576ee9e9e4a33d,
        type: 3}
      propertyPath: m_RootOrder
      value: 0
      objectReference: {fileID: 0}
    - target: {fileID: 9016573773909880646, guid: 4d217688d4360ba4a9576ee9e9e4a33d,
        type: 3}
      propertyPath: m_LocalEulerAnglesHint.x
      value: 0
      objectReference: {fileID: 0}
    - target: {fileID: 9016573773909880646, guid: 4d217688d4360ba4a9576ee9e9e4a33d,
        type: 3}
      propertyPath: m_LocalEulerAnglesHint.y
      value: 0
      objectReference: {fileID: 0}
    - target: {fileID: 9016573773909880646, guid: 4d217688d4360ba4a9576ee9e9e4a33d,
        type: 3}
      propertyPath: m_LocalEulerAnglesHint.z
      value: 0
      objectReference: {fileID: 0}
    m_RemovedComponents: []
  m_SourcePrefab: {fileID: 100100000, guid: 4d217688d4360ba4a9576ee9e9e4a33d, type: 3}
--- !u!4 &5883164999431739179 stripped
Transform:
  m_CorrespondingSourceObject: {fileID: 9016573773909880646, guid: 4d217688d4360ba4a9576ee9e9e4a33d,
    type: 3}
  m_PrefabInstance: {fileID: 3207826784097908845}
  m_PrefabAsset: {fileID: 0}
