%YAML 1.1
%TAG !u! tag:unity3d.com,2011:
--- !u!78 &1
TagManager:
  serializedVersion: 2
  tags:
  - Waypoint
  - Spawn point
  - Enemy
  layers:
  - Default
  - TransparentFX
  - Ignore Raycast
  - 
  - Water
  - UI
  - 
  - 
  - NonRendered
  - Player
  - Enemy
  - Projectile
  - Interactable
  - NonInteractable
  - 
  - 
  - 
  - 
  - 
  - 
  - 
  - 
  - 
  - 
  - 
  - 
  - 
  - 
  - 
  - 
  - 
  - 
  m_SortingLayers:
  - name: Background
    uniqueID: 831966677
    locked: 0
  - name: Default
    uniqueID: 0
    locked: 0
  - name: Units
    uniqueID: 677289473
    locked: 0
  - name: Effects
    uniqueID: 1092537573
    locked: 0
  - name: Overlay
    uniqueID: 3549257443
    locked: 0
