%YAML 1.1
%TAG !u! tag:unity3d.com,2011:
--- !u!114 &11400000
MonoBehaviour:
  m_ObjectHideFlags: 0
  m_CorrespondingSourceObject: {fileID: 0}
  m_PrefabInstance: {fileID: 0}
  m_PrefabAsset: {fileID: 0}
  m_GameObject: {fileID: 0}
  m_Enabled: 1
  m_EditorHideFlags: 0
  m_Script: {fileID: 11500000, guid: bff5286d8871bc64ca4e9a8993f5eee3, type: 3}
  m_Name: Sample Sound Data
  m_EditorClassIdentifier: 
  clip: {fileID: 0}
  volumeDiapason:
    minValue: 0
    maxValue: 0
  pitchDiapason:
    minValue: 0
    maxValue: 0
