%YAML 1.1
%TAG !u! tag:unity3d.com,2011:
--- !u!29 &1
OcclusionCullingSettings:
  m_ObjectHideFlags: 0
  serializedVersion: 2
  m_OcclusionBakeSettings:
    smallestOccluder: 5
    smallestHole: 0.25
    backfaceThreshold: 100
  m_SceneGUID: 00000000000000000000000000000000
  m_OcclusionCullingData: {fileID: 0}
--- !u!104 &2
RenderSettings:
  m_ObjectHideFlags: 0
  serializedVersion: 9
  m_Fog: 0
  m_FogColor: {r: 0.5, g: 0.5, b: 0.5, a: 1}
  m_FogMode: 3
  m_FogDensity: 0.01
  m_LinearFogStart: 0
  m_LinearFogEnd: 300
  m_AmbientSkyColor: {r: 0.212, g: 0.227, b: 0.259, a: 1}
  m_AmbientEquatorColor: {r: 0.114, g: 0.125, b: 0.133, a: 1}
  m_AmbientGroundColor: {r: 0.047, g: 0.043, b: 0.035, a: 1}
  m_AmbientIntensity: 1
  m_AmbientMode: 0
  m_SubtractiveShadowColor: {r: 0.42, g: 0.478, b: 0.627, a: 1}
  m_SkyboxMaterial: {fileID: 10304, guid: 0000000000000000f000000000000000, type: 0}
  m_HaloStrength: 0.5
  m_FlareStrength: 1
  m_FlareFadeSpeed: 3
  m_HaloTexture: {fileID: 0}
  m_SpotCookie: {fileID: 10001, guid: 0000000000000000e000000000000000, type: 0}
  m_DefaultReflectionMode: 0
  m_DefaultReflectionResolution: 128
  m_ReflectionBounces: 1
  m_ReflectionIntensity: 1
  m_CustomReflection: {fileID: 0}
  m_Sun: {fileID: 705507994}
  m_IndirectSpecularColor: {r: 0.44657844, g: 0.49641222, b: 0.57481694, a: 1}
  m_UseRadianceAmbientProbe: 0
--- !u!157 &3
LightmapSettings:
  m_ObjectHideFlags: 0
  serializedVersion: 11
  m_GIWorkflowMode: 0
  m_GISettings:
    serializedVersion: 2
    m_BounceScale: 1
    m_IndirectOutputScale: 1
    m_AlbedoBoost: 1
    m_EnvironmentLightingMode: 0
    m_EnableBakedLightmaps: 1
    m_EnableRealtimeLightmaps: 1
  m_LightmapEditorSettings:
    serializedVersion: 12
    m_Resolution: 2
    m_BakeResolution: 40
    m_AtlasSize: 1024
    m_AO: 0
    m_AOMaxDistance: 1
    m_CompAOExponent: 1
    m_CompAOExponentDirect: 0
    m_ExtractAmbientOcclusion: 0
    m_Padding: 2
    m_LightmapParameters: {fileID: 0}
    m_LightmapsBakeMode: 1
    m_TextureCompression: 1
    m_FinalGather: 0
    m_FinalGatherFiltering: 1
    m_FinalGatherRayCount: 256
    m_ReflectionCompression: 2
    m_MixedBakeMode: 2
    m_BakeBackend: 1
    m_PVRSampling: 1
    m_PVRDirectSampleCount: 32
    m_PVRSampleCount: 500
    m_PVRBounces: 2
    m_PVREnvironmentSampleCount: 500
    m_PVREnvironmentReferencePointCount: 2048
    m_PVRFilteringMode: 2
    m_PVRDenoiserTypeDirect: 0
    m_PVRDenoiserTypeIndirect: 0
    m_PVRDenoiserTypeAO: 0
    m_PVRFilterTypeDirect: 0
    m_PVRFilterTypeIndirect: 0
    m_PVRFilterTypeAO: 0
    m_PVREnvironmentMIS: 0
    m_PVRCulling: 1
    m_PVRFilteringGaussRadiusDirect: 1
    m_PVRFilteringGaussRadiusIndirect: 5
    m_PVRFilteringGaussRadiusAO: 2
    m_PVRFilteringAtrousPositionSigmaDirect: 0.5
    m_PVRFilteringAtrousPositionSigmaIndirect: 2
    m_PVRFilteringAtrousPositionSigmaAO: 1
    m_ExportTrainingData: 0
    m_TrainingDataDestination: TrainingData
  m_LightingDataAsset: {fileID: 0}
  m_UseShadowmask: 1
--- !u!196 &4
NavMeshSettings:
  serializedVersion: 2
  m_ObjectHideFlags: 0
  m_BuildSettings:
    serializedVersion: 2
    agentTypeID: 0
    agentRadius: 0.5
    agentHeight: 2
    agentSlope: 45
    agentClimb: 0.4
    ledgeDropHeight: 0
    maxJumpAcrossDistance: 0
    minRegionArea: 2
    manualCellSize: 0
    cellSize: 0.16666667
    manualTileSize: 0
    tileSize: 256
    accuratePlacement: 0
    debug:
      m_Flags: 0
  m_NavMeshData: {fileID: 0}
--- !u!108 &705507994 stripped
Light:
  m_CorrespondingSourceObject: {fileID: 4900033346231712101, guid: bafd274955b480648a9bd8c11bbc6abd,
    type: 3}
  m_PrefabInstance: {fileID: 4900033345594362879}
  m_PrefabAsset: {fileID: 0}
--- !u!1001 &406466972255398806
PrefabInstance:
  m_ObjectHideFlags: 0
  serializedVersion: 2
  m_Modification:
    m_TransformParent: {fileID: 0}
    m_Modifications:
    - target: {fileID: 7070743188429894017, guid: 21d0db5eec87bfe489c283b240dd7c13,
        type: 3}
      propertyPath: m_Name
      value: '[GAME UI]'
      objectReference: {fileID: 0}
    - target: {fileID: 6507280877467171699, guid: 21d0db5eec87bfe489c283b240dd7c13,
        type: 3}
      propertyPath: m_LocalPosition.x
      value: 0
      objectReference: {fileID: 0}
    - target: {fileID: 6507280877467171699, guid: 21d0db5eec87bfe489c283b240dd7c13,
        type: 3}
      propertyPath: m_LocalPosition.y
      value: 0
      objectReference: {fileID: 0}
    - target: {fileID: 6507280877467171699, guid: 21d0db5eec87bfe489c283b240dd7c13,
        type: 3}
      propertyPath: m_LocalPosition.z
      value: 0
      objectReference: {fileID: 0}
    - target: {fileID: 6507280877467171699, guid: 21d0db5eec87bfe489c283b240dd7c13,
        type: 3}
      propertyPath: m_LocalRotation.x
      value: 0
      objectReference: {fileID: 0}
    - target: {fileID: 6507280877467171699, guid: 21d0db5eec87bfe489c283b240dd7c13,
        type: 3}
      propertyPath: m_LocalRotation.y
      value: 0
      objectReference: {fileID: 0}
    - target: {fileID: 6507280877467171699, guid: 21d0db5eec87bfe489c283b240dd7c13,
        type: 3}
      propertyPath: m_LocalRotation.z
      value: 0
      objectReference: {fileID: 0}
    - target: {fileID: 6507280877467171699, guid: 21d0db5eec87bfe489c283b240dd7c13,
        type: 3}
      propertyPath: m_LocalRotation.w
      value: 1
      objectReference: {fileID: 0}
    - target: {fileID: 6507280877467171699, guid: 21d0db5eec87bfe489c283b240dd7c13,
        type: 3}
      propertyPath: m_RootOrder
      value: 0
      objectReference: {fileID: 0}
    - target: {fileID: 6507280877467171699, guid: 21d0db5eec87bfe489c283b240dd7c13,
        type: 3}
      propertyPath: m_LocalEulerAnglesHint.x
      value: 0
      objectReference: {fileID: 0}
    - target: {fileID: 6507280877467171699, guid: 21d0db5eec87bfe489c283b240dd7c13,
        type: 3}
      propertyPath: m_LocalEulerAnglesHint.y
      value: 0
      objectReference: {fileID: 0}
    - target: {fileID: 6507280877467171699, guid: 21d0db5eec87bfe489c283b240dd7c13,
        type: 3}
      propertyPath: m_LocalEulerAnglesHint.z
      value: 0
      objectReference: {fileID: 0}
    - target: {fileID: 1908386385, guid: 21d0db5eec87bfe489c283b240dd7c13, type: 3}
      propertyPath: m_AnchoredPosition.x
      value: -213.2002
      objectReference: {fileID: 0}
    m_RemovedComponents: []
  m_SourcePrefab: {fileID: 100100000, guid: 21d0db5eec87bfe489c283b240dd7c13, type: 3}
--- !u!1001 &4900033345594362879
PrefabInstance:
  m_ObjectHideFlags: 0
  serializedVersion: 2
  m_Modification:
    m_TransformParent: {fileID: 0}
    m_Modifications:
    - target: {fileID: 3420338948002840363, guid: bafd274955b480648a9bd8c11bbc6abd,
        type: 3}
      propertyPath: m_Name
      value: '[GAME WORLD]'
      objectReference: {fileID: 0}
    - target: {fileID: 3420338948002840363, guid: bafd274955b480648a9bd8c11bbc6abd,
        type: 3}
      propertyPath: m_IsActive
      value: 1
      objectReference: {fileID: 0}
    - target: {fileID: 6609347948366408184, guid: bafd274955b480648a9bd8c11bbc6abd,
        type: 3}
      propertyPath: m_LocalPosition.x
      value: 0
      objectReference: {fileID: 0}
    - target: {fileID: 6609347948366408184, guid: bafd274955b480648a9bd8c11bbc6abd,
        type: 3}
      propertyPath: m_LocalPosition.y
      value: 0
      objectReference: {fileID: 0}
    - target: {fileID: 6609347948366408184, guid: bafd274955b480648a9bd8c11bbc6abd,
        type: 3}
      propertyPath: m_LocalPosition.z
      value: 0
      objectReference: {fileID: 0}
    - target: {fileID: 6609347948366408184, guid: bafd274955b480648a9bd8c11bbc6abd,
        type: 3}
      propertyPath: m_LocalRotation.x
      value: 0
      objectReference: {fileID: 0}
    - target: {fileID: 6609347948366408184, guid: bafd274955b480648a9bd8c11bbc6abd,
        type: 3}
      propertyPath: m_LocalRotation.y
      value: 0
      objectReference: {fileID: 0}
    - target: {fileID: 6609347948366408184, guid: bafd274955b480648a9bd8c11bbc6abd,
        type: 3}
      propertyPath: m_LocalRotation.z
      value: 0
      objectReference: {fileID: 0}
    - target: {fileID: 6609347948366408184, guid: bafd274955b480648a9bd8c11bbc6abd,
        type: 3}
      propertyPath: m_LocalRotation.w
      value: 1
      objectReference: {fileID: 0}
    - target: {fileID: 6609347948366408184, guid: bafd274955b480648a9bd8c11bbc6abd,
        type: 3}
      propertyPath: m_RootOrder
      value: 1
      objectReference: {fileID: 0}
    - target: {fileID: 6609347948366408184, guid: bafd274955b480648a9bd8c11bbc6abd,
        type: 3}
      propertyPath: m_LocalEulerAnglesHint.x
      value: 0
      objectReference: {fileID: 0}
    - target: {fileID: 6609347948366408184, guid: bafd274955b480648a9bd8c11bbc6abd,
        type: 3}
      propertyPath: m_LocalEulerAnglesHint.y
      value: 0
      objectReference: {fileID: 0}
    - target: {fileID: 6609347948366408184, guid: bafd274955b480648a9bd8c11bbc6abd,
        type: 3}
      propertyPath: m_LocalEulerAnglesHint.z
      value: 0
      objectReference: {fileID: 0}
    - target: {fileID: 9210171550864099566, guid: bafd274955b480648a9bd8c11bbc6abd,
        type: 3}
      propertyPath: moveSpeed
      value: 5
      objectReference: {fileID: 0}
    - target: {fileID: 7351078119809198051, guid: bafd274955b480648a9bd8c11bbc6abd,
        type: 3}
      propertyPath: m_UseAutoMass
      value: 0
      objectReference: {fileID: 0}
    - target: {fileID: 7351078119809198051, guid: bafd274955b480648a9bd8c11bbc6abd,
        type: 3}
      propertyPath: m_Mass
      value: 0.1
      objectReference: {fileID: 0}
    - target: {fileID: 7351078119809198051, guid: bafd274955b480648a9bd8c11bbc6abd,
        type: 3}
      propertyPath: m_BodyType
      value: 1
      objectReference: {fileID: 0}
    - target: {fileID: 2378801086195594219, guid: bafd274955b480648a9bd8c11bbc6abd,
        type: 3}
      propertyPath: moveSpeed
      value: 10
      objectReference: {fileID: 0}
    - target: {fileID: 2378801086195594219, guid: bafd274955b480648a9bd8c11bbc6abd,
        type: 3}
      propertyPath: jumpSpeed
      value: 800
      objectReference: {fileID: 0}
    m_RemovedComponents: []
  m_SourcePrefab: {fileID: 100100000, guid: bafd274955b480648a9bd8c11bbc6abd, type: 3}
--- !u!1001 &7750598890642653892
PrefabInstance:
  m_ObjectHideFlags: 0
  serializedVersion: 2
  m_Modification:
    m_TransformParent: {fileID: 0}
    m_Modifications:
    - target: {fileID: 5114846958344250041, guid: 8229c606d5a28864bb6326dca9c17465,
        type: 3}
      propertyPath: m_Name
      value: '[GAME MANAGEMENT]'
      objectReference: {fileID: 0}
    - target: {fileID: 301587087103181518, guid: 8229c606d5a28864bb6326dca9c17465,
        type: 3}
      propertyPath: m_LocalPosition.x
      value: 0
      objectReference: {fileID: 0}
    - target: {fileID: 301587087103181518, guid: 8229c606d5a28864bb6326dca9c17465,
        type: 3}
      propertyPath: m_LocalPosition.y
      value: 0
      objectReference: {fileID: 0}
    - target: {fileID: 301587087103181518, guid: 8229c606d5a28864bb6326dca9c17465,
        type: 3}
      propertyPath: m_LocalPosition.z
      value: 0
      objectReference: {fileID: 0}
    - target: {fileID: 301587087103181518, guid: 8229c606d5a28864bb6326dca9c17465,
        type: 3}
      propertyPath: m_LocalRotation.x
      value: 0
      objectReference: {fileID: 0}
    - target: {fileID: 301587087103181518, guid: 8229c606d5a28864bb6326dca9c17465,
        type: 3}
      propertyPath: m_LocalRotation.y
      value: 0
      objectReference: {fileID: 0}
    - target: {fileID: 301587087103181518, guid: 8229c606d5a28864bb6326dca9c17465,
        type: 3}
      propertyPath: m_LocalRotation.z
      value: 0
      objectReference: {fileID: 0}
    - target: {fileID: 301587087103181518, guid: 8229c606d5a28864bb6326dca9c17465,
        type: 3}
      propertyPath: m_LocalRotation.w
      value: 1
      objectReference: {fileID: 0}
    - target: {fileID: 301587087103181518, guid: 8229c606d5a28864bb6326dca9c17465,
        type: 3}
      propertyPath: m_RootOrder
      value: 2
      objectReference: {fileID: 0}
    - target: {fileID: 301587087103181518, guid: 8229c606d5a28864bb6326dca9c17465,
        type: 3}
      propertyPath: m_LocalEulerAnglesHint.x
      value: 0
      objectReference: {fileID: 0}
    - target: {fileID: 301587087103181518, guid: 8229c606d5a28864bb6326dca9c17465,
        type: 3}
      propertyPath: m_LocalEulerAnglesHint.y
      value: 0
      objectReference: {fileID: 0}
    - target: {fileID: 301587087103181518, guid: 8229c606d5a28864bb6326dca9c17465,
        type: 3}
      propertyPath: m_LocalEulerAnglesHint.z
      value: 0
      objectReference: {fileID: 0}
    - target: {fileID: 1457486219, guid: 8229c606d5a28864bb6326dca9c17465, type: 3}
      propertyPath: movable
      value: 
      objectReference: {fileID: 0}
    - target: {fileID: 1457486217, guid: 8229c606d5a28864bb6326dca9c17465, type: 3}
      propertyPath: m_IsActive
      value: 1
      objectReference: {fileID: 0}
    - target: {fileID: 1839332550, guid: 8229c606d5a28864bb6326dca9c17465, type: 3}
      propertyPath: settings
      value: 
      objectReference: {fileID: 11400000, guid: 2a62460dfb8fcca4592574e8300bd46a,
        type: 2}
    - target: {fileID: 1839332550, guid: 8229c606d5a28864bb6326dca9c17465, type: 3}
      propertyPath: s
      value: 
      objectReference: {fileID: 11400000, guid: 2a62460dfb8fcca4592574e8300bd46a,
        type: 2}
    m_RemovedComponents: []
  m_SourcePrefab: {fileID: 100100000, guid: 8229c606d5a28864bb6326dca9c17465, type: 3}
